<?xml version="1.0" encoding="utf-8"?>
<!-- Generator: Adobe Illustrator 26.2.1, SVG Export Plug-In . SVG Version: 6.00 Build 0)  -->
<svg version="1.1" id="Layer_1" xmlns="http://www.w3.org/2000/svg" xmlns:xlink="http://www.w3.org/1999/xlink" x="0px" y="0px"
	 viewBox="0 0 512 512" style="enable-background:new 0 0 512 512;" xml:space="preserve">
<polygon points="435,230.4 281.5,230.4 281.5,77 230.4,77 230.4,230.4 77,230.4 77,281.5 230.4,281.5 230.4,435 281.5,435 
	281.5,281.5 435,281.5 "/>
</svg>
