<?xml version="1.0" encoding="UTF-8"?>
<svg width="15px" height="15px" viewBox="0 0 15 15" version="1.1" xmlns="http://www.w3.org/2000/svg" xmlns:xlink="http://www.w3.org/1999/xlink">
    <title>Shape Copy 7</title>
    <g id="-" stroke="none" stroke-width="1" fill="none" fill-rule="evenodd">
        <g id="Templates" transform="translate(-1038.000000, -364.000000)" fill="#8892B0" fill-rule="nonzero">
            <g id="Group-2" transform="translate(1019.000000, 272.000000)">
                <path d="M22.125,96.375 C23.850625,96.375 25.25,97.774375 25.25,99.5 C25.25,101.225625 23.850625,102.625 22.125,102.625 C20.399375,102.625 19,101.225625 19,99.5 C19,97.774375 20.399375,96.375 22.125,96.375 Z M29.07625,103.915625 C29.030625,104.10375 29,104.2975 29,104.5 C29,105.880625 30.119375,107 31.5,107 C32.880625,107 34,105.880625 34,104.5 C34,103.119375 32.880625,102 31.5,102 C30.771875,102 30.1225,102.31625 29.665625,102.813125 L26.235625,100.98375 C26.091875,101.38125 25.8925,101.751875 25.64625,102.08625 L29.07625,103.915625 L29.07625,103.915625 Z M34,94.5 C34,93.119375 32.880625,92 31.5,92 C30.119375,92 29,93.119375 29,94.5 C29,94.7025 29.030625,94.89625 29.07625,95.084375 L25.64625,96.91375 C25.893125,97.248125 26.091875,97.618125 26.235625,98.01625 L29.665625,96.186875 C30.1225,96.68375 30.771875,97 31.5,97 C32.880625,97 34,95.880625 34,94.5 Z" id="Shape-Copy-7"></path>
            </g>
        </g>
    </g>
</svg>